SSM,APC,Alexa Fluor 647,Alexa Fluor 700,APC-R700,APC-Cy7,APC-H7,BB660,PerCP-Cy55,BB700,BB790,BUV396,BUV496,BUV563,BUV661,BUV737,BUV805,BV421,Pacific Blue,V450,BV480,BV510,V500,BV570,BV605,BV650,BV711,BV750,BV785,BB515,Alexa Fluor 488,FITC,PE,PE-CF594,PE-Cy5,PE-Cy7,PE-Cy55
APC,0,1000,3.9,4.17,2.37,2.56,3.69,0.791,0.71,0.499,0.0771,0,0,2.61,0.859,1.35,0.411,0.415,0.407,0.319,0.308,0,0.366,1.04,3.95,1.19,0.729,0.844,0,0,0,0.303,0.072,5.5,0.743,2.41
Alexa Fluor 647,1000,0,4.69,4.95,3.27,2.97,0.383,0.81,1.5,0.607,0,0.0855,1.74,0.495,1.69,1.76,0.336,0.35,0.335,0.254,0.342,0.268,0.642,0.281,0.468,2.66,0.691,1.1,0,0,0,0.378,0.105,0.267,0.737,2.93
Alexa Fluor 700,0.725,0.675,0,1000,4.79,4.74,0.416,1.57,1.01,0.642,0,0,2.89,0.218,1.87,2.2,0.436,0.716,0.712,0.377,0.299,0.522,0.639,0.244,0.154,2.82,1.26,1.24,0.134,0.138,0.136,0.321,0.000442,0.39,0.879,2.16
APC-R700,5.19,4.87,1000,0,3.1,3.07,0.973,2.34,1.53,0.587,0,0.0787,1.17,0.46,1.64,1.73,0.329,0.781,0.777,0.313,0.333,0.627,0.647,0.332,0.771,2.63,0.685,1.09,0,0,0,0.367,0.0738,1.06,0.763,2.99
APC-Cy7,0.507,0.426,0.63,0.663,0,1000,0.145,0.173,0.106,2.59,0.0462,0.0464,1,0.158,0.353,2.64,0.378,0.452,0.418,0.0806,0.143,0.3,0,0.133,0.157,0.243,0.588,5.07,0.0978,0.0874,0.0889,0,0.0266,0.317,4.4,0.322
APC-H7,0.325,0.349,0.339,0.367,1000,0,0.136,0.093,0.00193,1.41,0.0958,0.0691,0.853,0.131,0.247,3.14,0.294,0.3,0.296,0.197,0,0.206,0.246,0,0.143,0.184,0.68,6.19,0.099,0.0915,0.0686,0.00418,0,0.121,3.62,0.123
BB660,8.82,8.31,3.45,3.67,2.01,2.13,0,2.07,0.709,1.4,0.264,0.0884,6.23,7.88,1.49,2.31,1.23,1.07,1.03,0,0.344,0.575,1.66,2.9,9.18,2.21,1.48,1.88,0.0457,0.0578,0.00199,0.263,0.18,3.32,0.424,1.5
PerCP-Cy55,3.21,3.02,4.08,4.22,4.2,4.13,1.02,0,1000,2.74,0.433,0.355,4.8,4.87,4.3,6.31,1.01,1.17,1.06,0,0.79,1.01,0.86,1.2,3.23,4.57,3.46,5.13,0,0,0,0.404,0.323,0.795,1.42,2.48
BB700,6.21,5.85,8.06,8.59,4.91,4.61,2.33,1000,0,4.84,0.427,0.0324,10.2,7.39,5.69,4.65,2.06,2.25,2.22,0.206,0.416,1.13,1.36,2.17,6.3,8.68,3.09,5.49,0.0935,0.0885,0.0893,0.392,0.186,2.96,0.994,1.43
BB790,0.948,0.855,0.588,0.632,3.84,3.76,0.921,0.473,0.337,0,0.405,0.0883,10.9,0.486,2.71,11.5,1.04,1.12,1.1,0,0.471,0.616,1.02,1.11,0.584,0.764,2.6,11.3,0.14,0.13,0.133,0.162,0.122,0.348,0.767,0.128
BUV396,0.116,0.195,0.0939,0.0922,0.58,0.552,0,0,0.0486,0,0,0.49,5.39,0.241,0.104,0.662,0.195,0.236,0.192,0,0.505,0.273,0,0.16,0.0581,0.143,0.0931,0.303,0.0819,0,0,0.177,0,0.106,0.0626,0.151
BUV496,0,0,0.186,0.189,0.16,0,0.213,0.192,0.13,0,3.49,0,33.2,0.976,0.52,0.706,0.325,0.351,0.392,1.2,5.3,4.31,1.78,0.92,0.152,0.0834,0.207,0.45,0.175,0.222,0.158,0.214,0.256,0.0808,0.165,0.164
BUV563,0.104,0.111,0.034,0.0483,0,0.0549,0,0.0725,0.0548,0,0.0614,0.0399,0,0.211,0.0915,0.201,0,0,0,0,0.0657,0,0.296,0.175,0.0795,0.0319,0,0.06,0.0247,0,0.0408,0.151,0.0978,0.0913,0,0.0384
BUV661,3.81,3.58,1.99,1.92,1.41,1.49,0.878,0.375,0.312,0.29,0.603,0.0242,2.64,0,1.94,3.06,0.17,0.269,0.266,0.0574,0.0831,0.153,0.0821,0.361,1.43,0.576,0.415,0.51,0,0,0,0.102,0.064,1.75,0.362,0.707
BUV737,0.965,0.91,4.41,4.46,2.57,2.43,0.408,0.916,0.923,1.58,0.841,0.0782,1.75,0.297,0,8.19,0.202,0.348,0.346,0.0261,0.133,0.0943,0.286,0.0839,0.107,0.803,1.45,1.6,0,0,0,0.091,0.0675,0.457,0.543,0.902
BUV805,0.0568,0,0.081,0.079,1.36,1.37,0.0157,0,0,0.203,0.547,0.0749,1.59,0.106,0.23,0,0.11,0.0774,0.0765,0,0,0.072,0.114,0.0644,0.0524,0.0983,0.386,1.47,0,0.0463,0,0.075,0,0.0413,0.308,0.0904
BV421,0.13,0.143,0.0621,0.0575,0,0,0.0354,0.068,0.0631,0.0486,0.191,0.481,5.01,0.0858,0.118,0.161,0,1000,1000,2.16,1.54,1.37,0.798,0.287,0.0889,0.0397,0,0.0804,0,0,0,0.0342,0.0587,0.0691,0,0.0497
Pacific Blue,0.268,0.384,0.202,0.195,0,0,0,0.193,0,0.00259,0.131,0.453,5.69,0.00348,0,0.296,1000,0,1000,3.95,3.21,2.64,1.53,0.681,0.0138,0.0097,0,0,0.152,0.197,0.275,0.251,0.202,0,0,0.398
V450,0,0.154,0.114,0,0,0,0,0,0.125,0,0.106,0.359,5.46,0.16,0,0,1000,1000,0,3.98,2.92,2.42,1.22,0.559,0.166,0.236,0,0.19,0,0.127,0.129,0.146,0.159,0,0,0
BV480,0.385,0.402,0.148,0.154,2,1.97,0.393,0,0,0.117,0.83,4.29,13.6,0.286,0.165,0.337,0.919,0.938,0.919,0,5.76,4.87,5.91,1.15,0.383,0.305,0.221,0.409,0.272,0.259,0.27,0.474,0.171,0.0985,0.129,0.054
BV510,0.575,0.542,0.254,0.267,1.42,1.41,0.128,0.203,0.157,0.0547,1.13,2.58,35.1,1.12,0.571,1.18,0.361,0.494,0.473,1.25,0,1000,1.64,1.99,0.737,0.57,0.657,0.81,0.121,0.0854,0.15,0.629,0.182,0.0183,0.0737,0
V500,0.276,0.301,0.157,0.16,0,0,0.264,0,0,0,0.273,0.976,13.5,0.476,0.109,0.246,0.361,0.374,0.358,1.43,1000,0,2.71,1.43,0.535,0.42,0.27,0.393,0.207,0.214,0.238,0.117,0.0885,0.00052,0,0.223
BV570,0.496,0.48,0.305,0.323,1.11,1.1,0.34,0.367,0.252,0.123,0.295,0,46.5,1.4,0.567,0.945,0.832,0.893,0.871,0,0.718,0.798,0,2.63,0.954,0.736,0.613,0.785,0,0,0,1.22,0.548,0.49,0.205,0.255
BV605,2.65,2.5,0.521,0.555,0.308,0.27,0.985,0.38,0.234,0.276,0.461,0.11,162,6.54,1.18,1.68,1.05,1.19,1.16,0.516,0.42,0.68,2.11,0,2.33,1.12,1.18,1.25,0,0,0,1.05,1.21,0.869,0.276,0.463
BV650,3.52,3.23,2.16,1.97,1.28,1.31,1.11,0.55,0.408,0.365,0.352,0.104,4.11,9.46,1.95,2.49,2.07,2.27,2.2,0.775,0.531,1.36,0.58,1.65,0,2.29,1.63,2.02,0,0,0,0.0552,0.2,1.54,0.392,0.716
BV711,1.46,1.38,6.68,7.12,2.66,2.67,0.53,1.13,1.07,0.898,0.399,0.0971,1.44,1.62,11.3,5.27,1.63,1.88,1.84,0.61,0.539,1.13,0.322,0.326,0.726,0,3.06,4.68,0.0644,0.0907,0.0643,0.281,0.0851,0.521,0.467,1.99
BV750,0.874,0.796,2.82,2.96,4.07,4,0.36,0.566,0.518,1.17,0.474,0.0938,0.92,0.186,13.5,4.77,1.79,2.03,1.96,0.555,0.405,1.17,0.433,0.191,0.11,1.55,0,7.66,0.0156,0.00203,0,0.166,0,0.264,0.74,0.714
BV785,0.206,0.185,0.434,0.468,3.19,3.16,0.0789,0.0706,0.0735,0.516,0.413,0.136,1.51,0.141,1.71,15.2,1.5,1.64,1.61,0.444,0.539,1.05,0.299,0.206,0.177,0.671,2.6,0,0,0,0,0.102,0.0494,0.085,0.603,0.123
BB515,0,0,0,0,0,0,0.135,0,0,0.0997,0.142,0.498,6.45,0,0,0.162,0.0723,0,0,0.43,1.06,1.01,0.507,0.244,0,0.156,0,0.133,0,1000,1000,0.105,0.103,0.0329,0.0937,0.0161
Alexa Fluor 488,0.308,0.25,0,0,0.286,0.284,0.272,0,0,0,0.122,0.208,5.93,0.268,0.153,0.161,0.281,0.226,0,0,0.675,0.612,0,0.326,0.29,0.363,0.0005,0.161,1000,0,1000,0,0.132,0,0.122,0.523
FITC,0.217,0.378,0,0.00206,0.348,0.34,0.334,0.493,0.31,0.164,0.3,0.692,11,0,0,0,0.375,0.296,0.292,1.29,2.89,2.56,1.53,0.385,0.342,0.179,0.164,0.27,1000,1000,0,0,0.153,0,0.255,0.236
PE,1.13,1.08,0.269,0.307,0.441,0.452,1.22,0.809,0.55,0.583,0.332,0.181,214,1.74,0.793,2.59,2.08,2.32,2.25,0.258,0.344,1.33,12.2,5.68,1.27,0.742,0.583,0.785,0.08,0.132,0.0041,0,1.23,1.24,0.449,0.505
PE-CF594,2.46,2.38,0.495,0.537,0.463,0.414,1.85,1.56,1.03,1.39,0.0961,0.204,28.1,3.05,1.11,1.64,0.38,0.545,0.54,0.574,0.391,0.574,1.07,5.76,1.62,1.22,0.856,1.38,0,0,0,1.29,0,2.11,0.769,1.06
PE-Cy5,5.7,5.61,2.31,2.47,1.21,1.35,4.19,2.44,1.45,2.2,0.211,0.0398,4.03,6.8,0.968,1.8,0.79,1.05,1.03,0,0.152,0.647,0.747,1.79,6.69,1.28,1.03,1.94,0,0,0,0.612,0.215,0,1.19,2.23
PE-Cy7,0.297,0.272,0.286,0.292,2.66,2.62,0.238,0.358,0.246,2.81,0.073,0.0674,2.29,0.193,0.559,4.3,0.22,0.179,0.177,0,0,0,0.194,0.176,0.204,0.359,0.924,3.15,0,0.0843,0,0,0.129,0.776,0,2.48
PE-Cy55,1.64,1.48,2.78,2.97,1.99,1.92,0.932,4.5,2.96,3.92,0.251,0.115,24.3,2.36,2.82,2.62,0.809,1.56,1.52,0.158,0.146,0.872,2.05,1.33,2.05,4.91,1.43,3.35,0,0,0,1,0.439,0.908,1.73,0
