"","Penaltyi","Penaltyj","V3","V4","V5","V6","V7","V8","V9","V10","V11","V12"
"1",-51.84,-29.472,30,-1203.34,-51.84,-50.928,-49.044,639.36,-42.792,4728.204,-51.84,-51.84
"2",122.468,-54.76,129.38,-1114.385,-14.71,938.408,-43.576,215.24,-45.712,26.564,29.324,-54.76
"3",455.09,52.262,-37.21,4048.165,-11.578,21.158,63.446,-37.21,-34.948,-1.06599999999999,209.894,-37.21
"4",-744.982,410.158,-1248.75,-68.89,291.56,-89.562,-257.154,-68.89,-68.89,373.874,221.114,-42.142
"5",110.990367346939,-64.2816326530613,307.418367346939,-204.081632653061,-204.081632653061,-130.209632653061,-204.081632653061,770.618367346939,-93.2436326530613,3410.31836734694,-161.181632653061,-143.898632653061
"6",-1418.97027027027,825.761729729729,-270.27027027027,-1495.27027027027,-76.4282702702703,-270.27027027027,-245.10627027027,704.42972972973,-249.91227027027,-87.2912702702703,-131.27427027027,-270.27027027027
"7",78.768,559.2,1002.54,-931,14.418,8.208,0,24.3,20.358,56.475,42.9,0
"8",1260.288,22.368,0,0,14.418,0,11.184,0,36.192,508.275,0,0
"9",-1313.64133333333,-1327.74133333333,-1312.87333333333,-1314.95833333333,-1333.33333333333,-1318.74133333333,-1308.16933333333,-1333.33333333333,-1333.33333333333,-1324.29733333333,-1333.33333333333,-1326.64633333333
"10",-563.512740740741,-740.740740740741,-740.740740740741,-740.740740740741,-715.108740740741,-740.740740740741,-715.576740740741,-643.540740740741,-684.190740740741,-740.740740740741,-725.296740740741,-713.992740740741
"11",177.228,7247.232,0,165.375,706.482,441.408,69.9,326.7,81.432,652.851,0,167.175
"12",-4000,-4000,-4000,-3981.625,-4000,-4000,-4000,-4000,-3979.642,-4000,-4000,-4000
"13",-51.84,-51.84,-51.84,-197.465,1526.958,36.774,111.024,357.816,-51.84,654.642,203.472,115.335
"14",-36,-36,7.2,80.5,48.078,-36,-36,313.056,-36,66.528,985.248,505.647
"15",33.674,1882.79,-50.41,66.09,-50.41,-11.026,112.454,-50.41,-50.41,-50.41,1148.138,9.773
"16",-104.51,-183.41,-84.41,-4.41,4.932,-1606.026,-340.694,-4.41,396.606,10.008,-4.41,-4.41
"17",-767.514769230769,-769.230769230769,-764.430769230769,-769.230769230769,-769.230769230769,-286.776769230769,-769.230769230769,-769.230769230769,-761.046769230769,-609.030769230769,-705.402769230769,-762.543769230769
"18",-2643,-2500,-2500,-2729.505,-2490.658,-2500,-2481.904,-2500,-2467.264,-2500,-2492.908,-2500
"19",0,3267.108,4.8,-201.545,0,9.846,0,155.136,8.184,0,177.3,6.687
"20",138.996,19.332,19.2,283.095,37.368,88.614,40.716,0,130.944,160.2,113.472,0
"21",-70.3563174603175,-298.128317460317,-316.260317460317,-191.640317460317,-280.092317460317,-71.3103174603175,-312.936317460317,227.939682539683,-317.460317460317,-291.828317460317,881.087682539683,-317.460317460317
"22",-251.217647058824,126.890352941176,-289.317647058824,-294.117647058824,2097.43435294118,-136.581647058824,-72.4416470588236,-175.341647058824,-89.5176470588235,-294.117647058824,-180.645647058823,-233.934647058824
"23",1544.4,77.328,4.8,13.98,4119.822,157.536,0,118.776,8.184,847.458,0,60.183
"24",-714.285714285714,-351.273714285714,-695.085714285714,-714.285714285714,-714.285714285714,-714.285714285714,-673.569714285714,-675.501714285714,-714.285714285714,-714.285714285714,-650.457714285714,-714.285714285714
"25",-190.44,3557.16,-190.44,-44.555,-118.44,-116.784,384.012,-82.008,419.352,-150.39,2612.16,1299.312
"26",-1.44,-1.44,-1.44,-180.44,-1.44,-1.44,-1.44,146.148,8.088,0.162,-1.44,4.032
"27",-7.84,29.636,-7.84,266.925,27.44,-7.84,55.988,-7.84,1.688,-7.84,-7.84,-7.84
"28",-401.578,-483.89,22.8549999999999,-136.89,1591.83,-1500.89,293.358,733.578,-77.34,-34.362,-24.786,-49.338
"29",-97.5007835051546,4431.50321649485,9269.85221649484,13053.4072164948,-103.092783505155,-103.092783505155,6279.70721649484,2607.70721649484,-103.092783505155,-103.092783505155,-103.092783505155,-103.092783505155
"30",-684.220307692308,-241.068307692308,-307.692307692308,-462.527307692308,-307.692307692308,-307.692307692308,890.855692307692,-259.500307692308,845.195692307693,-282.060307692308,-257.868307692308,-220.140307692308
"31",4702.872,1836.324,100.305,-82.34,18,8.184,0,870.468,1488.75,847.458,5493.096,2894.688
"32",0,16526.916,44.58,0,18,0,28.368,0,0,25.632,49.824,0
"33",4281.03521649484,833.807216494845,-91.9477835051546,28.4722164948453,-100.212783505155,-70.3567835051546,10137.7552164948,767.375216494845,-103.092783505155,257.357216494845,3496.69121649484,3455.07521649484
"34",14.8,9872.764,-24.695,401.26,-21.32,79.6,-11.528,4694.2,-115.472,-125,3063.736,-14.192
"35",50.328,1203.396,11.145,0,0,8.184,63.828,301.2,59.55,160.2,0,231.192
"36",922.118956521739,1329.29095652174,-173.913043478261,-173.913043478261,-173.913043478261,-173.913043478261,1421.78695652174,70.0589565217391,1314.83695652174,19.9289565217392,5319.18295652174,-173.913043478261
"37",-295.84,9701.924,3690.08,3978.48,-294.715,-274.39,113.36,4523.36,-286.312,-210.736,-157.6,-185.032
"38",-0.113999999999999,-2.25,-2.25,-370.25,7.875,-2.25,-2.25,145.338,7.278,-2.25,-2.25,3.222
"39",158.84,1148.636,-54.76,510.12,-53.635,-53.902,-38.392,246.44,4.78999999999999,-6.889,-54.76,176.432
"40",-168.824,12547.464,2784.08,-163.84,-153.715,-306.84,-1380.528,1040.96,-163.84,-163.84,-1.60000000000002,-76.288
"41",-537.252571428571,-571.428571428571,-571.428571428571,-571.428571428571,-571.428571428571,-571.428571428571,-505.956571428571,-544.320571428571,-571.428571428571,-486.324571428571,-148.068571428571,-571.428571428571
"42",626.044965517241,2676.93296551724,2493.39896551724,1089.34896551724,-136.806034482759,-137.931034482759,-137.931034482759,732.536965517241,205.076965517241,53.5529655172414,-60.1710344827586,524.180965517241
"43",34.176,66.624,62.28,-345.92,1.125,123.552,0,48.192,1152.888,898.911,0,87.552
"44",34.176,16526.916,62.28,270.48,0,7.722,0,0,0,21.276,24,0
"45",376.433333333333,832.733333333333,4395.56333333333,447.833333333333,-103.041666666667,349.715333333333,-38.6946666666667,766.301333333333,-104.166666666667,7576.46933333333,-100.326666666667,3454.00133333333
"46",1032.85662135922,1739.23662135922,6769.28262135922,1316.03262135922,-97.0873786407767,675.112621359223,-80.7193786407767,773.380621359223,1391.66262135922,-97.0873786407767,-73.0873786407767,2797.60062135922
"47",0,4534.596,0,3731.52,0,0,0,2710.8,0,4787.1,0,0
"48",88.9644745762712,1333.71247457627,6696.87847457627,183.788474576271,-169.491525423729,-99.9935254237288,-169.491525423729,74.4804745762711,1319.25847457627,1027.28347457627,-169.491525423729,-169.491525423729
